Studying Asian Voting Patterns in CA-38
…
My data is taken from the California Statewide Database and is specifically filtered to the election data from the current California District 38, including the regions that were redrawn into CA-38, which is essentially the the aforementioned East SGV. The data was collected through voters’ Statement of Vote and the Statement of Registration in conjunction with the geography files from all 58 counties for each election. The purpose of the statewide database is to have an established place with election data that can be compared overtime.

Because my data is raw, there is no explicit treatment, control, or variable that was trying to be studied during data collection. However, in the context of my research, the key independent variables are the population and propotion of Asians in CA-38 and the key dependent variable are the number and proportion of votes casted for a particular candidate in a particular election. add design type and treatment (demographic shift, basically)

Results

Show code

votes <- read_csv("tract.csv")

cngdem1820 <- votes |>
  filter(cd_2010 == "38")
cngdem1820

# A tibble: 152 × 251
   GEOID STATEFP COUNTYFP TRACTCE  NAME cd_2010 cd_2020 NAMELSAD MTFCC
   <chr> <chr>   <chr>      <dbl> <dbl>   <dbl>   <dbl> <chr>    <chr>
 1 0603… 06      037       530007 5300.      38      38 Census … G5020
 2 0603… 06      037       502700 5027       38      38 Census … G5020
 3 0603… 06      037       502901 5029.      38      38 Census … G5020
 4 0603… 06      037       502604 5026.      38      38 Census … G5020
 5 0603… 06      037       502303 5023.      38      38 Census … G5020
 6 0603… 06      037       554511 5545.      38      45 Census … G5020
 7 0603… 06      037       501301 5013.      38      38 Census … G5020
 8 0603… 06      037       980036 9800.      38      38 Census … G5020
 9 0603… 06      037       532102 5321.      38      38 Census … G5020
10 0603… 06      037       502603 5026.      38      38 Census … G5020
# ℹ 142 more rows
# ℹ 242 more variables: FUNCSTAT <chr>, ALAND <dbl>, AWATER <dbl>,
#   INTPTLAT <dbl>, INTPTLON <dbl>, pop <dbl>, pop_white <dbl>,
#   pop_black <dbl>, pop_hisp <dbl>, pop_aian <dbl>, pop_asian <dbl>,
#   pop_nhpi <dbl>, pop_other <dbl>, pop_two <dbl>, vap <dbl>,
#   vap_white <dbl>, vap_black <dbl>, vap_hisp <dbl>, vap_aian <dbl>,
#   vap_asian <dbl>, vap_nhpi <dbl>, vap_other <dbl>, …
…
This graph displays votes cast for Linda Sánchez in the 2018 and 2020 congressional elections before East SGV was redistricted into CA-38. This establishes the voting precedent in CA-38 before redistricting and can be compared to Figure 2 to observe the shift in voting patterns after the demographic shift in CA-38.

Show code

cngdem22 <- votes |>
  filter(cd_2020 == "38")
cngdem22

# A tibble: 152 × 251
   GEOID STATEFP COUNTYFP TRACTCE  NAME cd_2010 cd_2020 NAMELSAD MTFCC
   <chr> <chr>   <chr>      <dbl> <dbl>   <dbl>   <dbl> <chr>    <chr>
 1 0603… 06      037       409100 4091       39      38 Census … G5020
 2 0603… 06      037       530007 5300.      38      38 Census … G5020
 3 0603… 06      037       502700 5027       38      38 Census … G5020
 4 0603… 06      037       502901 5029.      38      38 Census … G5020
 5 0603… 06      037       502604 5026.      38      38 Census … G5020
 6 0603… 06      037       408707 4087.      39      38 Census … G5020
 7 0603… 06      037       502303 5023.      38      38 Census … G5020
 8 0603… 06      037       408503 4085.      39      38 Census … G5020
 9 0603… 06      037       403328 4033.      39      38 Census … G5020
10 0603… 06      037       501301 5013.      38      38 Census … G5020
# ℹ 142 more rows
# ℹ 242 more variables: FUNCSTAT <chr>, ALAND <dbl>, AWATER <dbl>,
#   INTPTLAT <dbl>, INTPTLON <dbl>, pop <dbl>, pop_white <dbl>,
#   pop_black <dbl>, pop_hisp <dbl>, pop_aian <dbl>, pop_asian <dbl>,
#   pop_nhpi <dbl>, pop_other <dbl>, pop_two <dbl>, vap <dbl>,
#   vap_white <dbl>, vap_black <dbl>, vap_hisp <dbl>, vap_aian <dbl>,
#   vap_asian <dbl>, vap_nhpi <dbl>, vap_other <dbl>, …
…
This graph displays votes cast for Linda Sánchez in the 2022 CA-38 congressional election to illustrate changes in established voting patterns in CA-38 post-redistricting. This data includes the entirety of CA-38 to reflect the aggregate impact of East SGV on the new district when compared to Figure 1, which displays the regressions of votes for Linda Sánchez pre-redistricting and before the increase in the Asian population in CA-38.

The two plots are meant to demonstrate/confirm my preliminary observations about Asian voting behavior. The first graph visualizes a linear regression for votes for Linda Sánchez, the Democratic candidate, in 2022 (after East SGV was redistricted into CA-38). The second graph visualizes two linear regressions for votes for Sánchez in the 2018 and 2022 Congressional elections to compare the impact of redistricting and increase in Asian voters in CA-38. When juxtaposed, we can see that the difference in votes for Sánchez in 2022 versus 2018 and 2020, before the uptick in the number of Asians in CA-38. In 2022, with the presence of an Asian Republican candidate, the proportion of votes for Sánchez decreased, despite being an incumbent candidate. Because the other areas of CA-38 pre- and post-redistricting are kept relatively consistent, we can more comfortably attribute this shift in votes to the increase in Asian voters, who are usually a pretty consistent blue voting bloc.

Show code

cngprop20 <- votes |>
  filter(cd_2010 == "38") |>
  mutate(prop_asians = (pop_asian / pop) * 100) |>
  mutate(prop_dem20 = (CNGDEM01_20 / TOTVOTE_20) * 100) |>
  mutate(prop_rep20 = (CNGREP01_20 / TOTVOTE_20) * 100)
cngprop20

# A tibble: 152 × 254
   GEOID STATEFP COUNTYFP TRACTCE  NAME cd_2010 cd_2020 NAMELSAD MTFCC
   <chr> <chr>   <chr>      <dbl> <dbl>   <dbl>   <dbl> <chr>    <chr>
 1 0603… 06      037       530007 5300.      38      38 Census … G5020
 2 0603… 06      037       502700 5027       38      38 Census … G5020
 3 0603… 06      037       502901 5029.      38      38 Census … G5020
 4 0603… 06      037       502604 5026.      38      38 Census … G5020
 5 0603… 06      037       502303 5023.      38      38 Census … G5020
 6 0603… 06      037       554511 5545.      38      45 Census … G5020
 7 0603… 06      037       501301 5013.      38      38 Census … G5020
 8 0603… 06      037       980036 9800.      38      38 Census … G5020
 9 0603… 06      037       532102 5321.      38      38 Census … G5020
10 0603… 06      037       502603 5026.      38      38 Census … G5020
# ℹ 142 more rows
# ℹ 245 more variables: FUNCSTAT <chr>, ALAND <dbl>, AWATER <dbl>,
#   INTPTLAT <dbl>, INTPTLON <dbl>, pop <dbl>, pop_white <dbl>,
#   pop_black <dbl>, pop_hisp <dbl>, pop_aian <dbl>, pop_asian <dbl>,
#   pop_nhpi <dbl>, pop_other <dbl>, pop_two <dbl>, vap <dbl>,
#   vap_white <dbl>, vap_black <dbl>, vap_hisp <dbl>, vap_aian <dbl>,
#   vap_asian <dbl>, vap_nhpi <dbl>, vap_other <dbl>, …
…
This regression displays the relationship between the proportion of Asians in CA-38 and the proportion of votes received by a party in the 2020 congressional election before East SGV was redistricted into CA-38 and the district experienced a large uptick in their proportion of Asian voters. The proportion of Asians as a percentage was calculated by dividing the number of Asians in a geographic area by its total population and then multiplied by 100. The proportion of votes was calculated by dividing the number of votes casted for a certain party by the total number of votes and then multiplied by 100.

Show code

cngprop22 <- votes |>
  filter(cd_2020 == "38") |>
  mutate(prop_asians = (pop_asian / pop) * 100) |>
  mutate(prop_dem22 = (CNGDEM01_22 / TOTVOTE_22) * 100) |>
  mutate(prop_rep22 = (CNGREP01_22 / TOTVOTE_22) * 100)
cngprop22

# A tibble: 152 × 254
   GEOID STATEFP COUNTYFP TRACTCE  NAME cd_2010 cd_2020 NAMELSAD MTFCC
   <chr> <chr>   <chr>      <dbl> <dbl>   <dbl>   <dbl> <chr>    <chr>
 1 0603… 06      037       409100 4091       39      38 Census … G5020
 2 0603… 06      037       530007 5300.      38      38 Census … G5020
 3 0603… 06      037       502700 5027       38      38 Census … G5020
 4 0603… 06      037       502901 5029.      38      38 Census … G5020
 5 0603… 06      037       502604 5026.      38      38 Census … G5020
 6 0603… 06      037       408707 4087.      39      38 Census … G5020
 7 0603… 06      037       502303 5023.      38      38 Census … G5020
 8 0603… 06      037       408503 4085.      39      38 Census … G5020
 9 0603… 06      037       403328 4033.      39      38 Census … G5020
10 0603… 06      037       501301 5013.      38      38 Census … G5020
# ℹ 142 more rows
# ℹ 245 more variables: FUNCSTAT <chr>, ALAND <dbl>, AWATER <dbl>,
#   INTPTLAT <dbl>, INTPTLON <dbl>, pop <dbl>, pop_white <dbl>,
#   pop_black <dbl>, pop_hisp <dbl>, pop_aian <dbl>, pop_asian <dbl>,
#   pop_nhpi <dbl>, pop_other <dbl>, pop_two <dbl>, vap <dbl>,
#   vap_white <dbl>, vap_black <dbl>, vap_hisp <dbl>, vap_aian <dbl>,
#   vap_asian <dbl>, vap_nhpi <dbl>, vap_other <dbl>, …
…
